('E:\\Python\\GitLab1\\build\\Snake1\\PYZ-00.pyz',
 [('pkg_resources',
   'c:\\users\\user\\appdata\\local\\programs\\python\\python37-32\\lib\\site-packages\\pkg_resources\\__init__.py',
   'PYMODULE'),
  ('pkg_resources._vendor.packaging',
   'c:\\users\\user\\appdata\\local\\programs\\python\\python37-32\\lib\\site-packages\\pkg_resources\\_vendor\\packaging\\__init__.py',
   'PYMODULE'),
  ('pkg_resources._vendor.pyparsing',
   'c:\\users\\user\\appdata\\local\\programs\\python\\python37-32\\lib\\site-packages\\pkg_resources\\_vendor\\pyparsing.py',
   'PYMODULE'),
  ('uuid',
   'c:\\users\\user\\appdata\\local\\programs\\python\\python37-32\\lib\\uuid.py',
   'PYMODULE'),
  ('ctypes.util',
   'c:\\users\\user\\appdata\\local\\programs\\python\\python37-32\\lib\\ctypes\\util.py',
   'PYMODULE'),
  ('ctypes._aix',
   'c:\\users\\user\\appdata\\local\\programs\\python\\python37-32\\lib\\ctypes\\_aix.py',
   'PYMODULE'),
  ('ctypes.macholib.dyld',
   'c:\\users\\user\\appdata\\local\\programs\\python\\python37-32\\lib\\ctypes\\macholib\\dyld.py',
   'PYMODULE'),
  ('ctypes.macholib',
   'c:\\users\\user\\appdata\\local\\programs\\python\\python37-32\\lib\\ctypes\\macholib\\__init__.py',
   'PYMODULE'),
  ('ctypes.macholib.dylib',
   'c:\\users\\user\\appdata\\local\\programs\\python\\python37-32\\lib\\ctypes\\macholib\\dylib.py',
   'PYMODULE'),
  ('ctypes.macholib.framework',
   'c:\\users\\user\\appdata\\local\\programs\\python\\python37-32\\lib\\ctypes\\macholib\\framework.py',
   'PYMODULE'),
  ('ctypes',
   'c:\\users\\user\\appdata\\local\\programs\\python\\python37-32\\lib\\ctypes\\__init__.py',
   'PYMODULE'),
  ('ctypes._endian',
   'c:\\users\\user\\appdata\\local\\programs\\python\\python37-32\\lib\\ctypes\\_endian.py',
   'PYMODULE'),
  ('pkg_resources._vendor.packaging.utils',
   'c:\\users\\user\\appdata\\local\\programs\\python\\python37-32\\lib\\site-packages\\pkg_resources\\_vendor\\packaging\\utils.py',
   'PYMODULE'),
  ('pkg_resources._vendor.six',
   'c:\\users\\user\\appdata\\local\\programs\\python\\python37-32\\lib\\site-packages\\pkg_resources\\_vendor\\six.py',
   'PYMODULE'),
  ('pkg_resources._vendor.appdirs',
   'c:\\users\\user\\appdata\\local\\programs\\python\\python37-32\\lib\\site-packages\\pkg_resources\\_vendor\\appdirs.py',
   'PYMODULE'),
  ('pkg_resources._vendor.packaging.specifiers',
   'c:\\users\\user\\appdata\\local\\programs\\python\\python37-32\\lib\\site-packages\\pkg_resources\\_vendor\\packaging\\specifiers.py',
   'PYMODULE'),
  ('pkg_resources._vendor',
   'c:\\users\\user\\appdata\\local\\programs\\python\\python37-32\\lib\\site-packages\\pkg_resources\\_vendor\\__init__.py',
   'PYMODULE'),
  ('pkg_resources._vendor.packaging.requirements',
   'c:\\users\\user\\appdata\\local\\programs\\python\\python37-32\\lib\\site-packages\\pkg_resources\\_vendor\\packaging\\requirements.py',
   'PYMODULE'),
  ('pkg_resources._vendor.packaging._compat',
   'c:\\users\\user\\appdata\\local\\programs\\python\\python37-32\\lib\\site-packages\\pkg_resources\\_vendor\\packaging\\_compat.py',
   'PYMODULE'),
  ('pkg_resources._vendor.packaging.version',
   'c:\\users\\user\\appdata\\local\\programs\\python\\python37-32\\lib\\site-packages\\pkg_resources\\_vendor\\packaging\\version.py',
   'PYMODULE'),
  ('pkg_resources._vendor.packaging.__about__',
   'c:\\users\\user\\appdata\\local\\programs\\python\\python37-32\\lib\\site-packages\\pkg_resources\\_vendor\\packaging\\__about__.py',
   'PYMODULE'),
  ('pkg_resources._vendor.packaging.markers',
   'c:\\users\\user\\appdata\\local\\programs\\python\\python37-32\\lib\\site-packages\\pkg_resources\\_vendor\\packaging\\markers.py',
   'PYMODULE'),
  ('pkg_resources._vendor.packaging._structures',
   'c:\\users\\user\\appdata\\local\\programs\\python\\python37-32\\lib\\site-packages\\pkg_resources\\_vendor\\packaging\\_structures.py',
   'PYMODULE'),
  ('__main__',
   'C:\\Users\\user\\AppData\\Local\\Programs\\Python\\Python37-32\\Scripts\\pyinstaller.exe\\__main__.py',
   'PYMODULE'),
  ('PyInstaller.__main__',
   'c:\\users\\user\\appdata\\local\\programs\\python\\python37-32\\lib\\site-packages\\PyInstaller\\__main__.py',
   'PYMODULE'),
  ('PyInstaller.building.build_main',
   'c:\\users\\user\\appdata\\local\\programs\\python\\python37-32\\lib\\site-packages\\PyInstaller\\building\\build_main.py',
   'PYMODULE'),
  ('PyInstaller.building',
   'c:\\users\\user\\appdata\\local\\programs\\python\\python37-32\\lib\\site-packages\\PyInstaller\\building\\__init__.py',
   'PYMODULE'),
  ('PyInstaller.config',
   'c:\\users\\user\\appdata\\local\\programs\\python\\python37-32\\lib\\site-packages\\PyInstaller\\config.py',
   'PYMODULE'),
  ('PyInstaller.utils.win32.winmanifest',
   'c:\\users\\user\\appdata\\local\\programs\\python\\python37-32\\lib\\site-packages\\PyInstaller\\utils\\win32\\winmanifest.py',
   'PYMODULE'),
  ('PyInstaller.utils.win32.winresource',
   'c:\\users\\user\\appdata\\local\\programs\\python\\python37-32\\lib\\site-packages\\PyInstaller\\utils\\win32\\winresource.py',
   'PYMODULE'),
  ('xml.dom.minidom',
   'c:\\users\\user\\appdata\\local\\programs\\python\\python37-32\\lib\\xml\\dom\\minidom.py',
   'PYMODULE'),
  ('xml.dom.pulldom',
   'c:\\users\\user\\appdata\\local\\programs\\python\\python37-32\\lib\\xml\\dom\\pulldom.py',
   'PYMODULE'),
  ('xml.sax.handler',
   'c:\\users\\user\\appdata\\local\\programs\\python\\python37-32\\lib\\xml\\sax\\handler.py',
   'PYMODULE'),
  ('xml.sax',
   'c:\\users\\user\\appdata\\local\\programs\\python\\python37-32\\lib\\xml\\sax\\__init__.py',
   'PYMODULE'),
  ('xml.sax.expatreader',
   'c:\\users\\user\\appdata\\local\\programs\\python\\python37-32\\lib\\xml\\sax\\expatreader.py',
   'PYMODULE'),
  ('xml.sax._exceptions',
   'c:\\users\\user\\appdata\\local\\programs\\python\\python37-32\\lib\\xml\\sax\\_exceptions.py',
   'PYMODULE'),
  ('xml.sax.saxutils',
   'c:\\users\\user\\appdata\\local\\programs\\python\\python37-32\\lib\\xml\\sax\\saxutils.py',
   'PYMODULE'),
  ('urllib.request',
   'c:\\users\\user\\appdata\\local\\programs\\python\\python37-32\\lib\\urllib\\request.py',
   'PYMODULE'),
  ('getpass',
   'c:\\users\\user\\appdata\\local\\programs\\python\\python37-32\\lib\\getpass.py',
   'PYMODULE'),
  ('nturl2path',
   'c:\\users\\user\\appdata\\local\\programs\\python\\python37-32\\lib\\nturl2path.py',
   'PYMODULE'),
  ('ftplib',
   'c:\\users\\user\\appdata\\local\\programs\\python\\python37-32\\lib\\ftplib.py',
   'PYMODULE'),
  ('netrc',
   'c:\\users\\user\\appdata\\local\\programs\\python\\python37-32\\lib\\netrc.py',
   'PYMODULE'),
  ('http.cookiejar',
   'c:\\users\\user\\appdata\\local\\programs\\python\\python37-32\\lib\\http\\cookiejar.py',
   'PYMODULE'),
  ('urllib.response',
   'c:\\users\\user\\appdata\\local\\programs\\python\\python37-32\\lib\\urllib\\response.py',
   'PYMODULE'),
  ('urllib.error',
   'c:\\users\\user\\appdata\\local\\programs\\python\\python37-32\\lib\\urllib\\error.py',
   'PYMODULE'),
  ('xml.sax.xmlreader',
   'c:\\users\\user\\appdata\\local\\programs\\python\\python37-32\\lib\\xml\\sax\\xmlreader.py',
   'PYMODULE'),
  ('xml.dom.expatbuilder',
   'c:\\users\\user\\appdata\\local\\programs\\python\\python37-32\\lib\\xml\\dom\\expatbuilder.py',
   'PYMODULE'),
  ('xml.dom.NodeFilter',
   'c:\\users\\user\\appdata\\local\\programs\\python\\python37-32\\lib\\xml\\dom\\NodeFilter.py',
   'PYMODULE'),
  ('xml.dom.xmlbuilder',
   'c:\\users\\user\\appdata\\local\\programs\\python\\python37-32\\lib\\xml\\dom\\xmlbuilder.py',
   'PYMODULE'),
  ('xml.dom.minicompat',
   'c:\\users\\user\\appdata\\local\\programs\\python\\python37-32\\lib\\xml\\dom\\minicompat.py',
   'PYMODULE'),
  ('xml.dom.domreg',
   'c:\\users\\user\\appdata\\local\\programs\\python\\python37-32\\lib\\xml\\dom\\domreg.py',
   'PYMODULE'),
  ('xml.dom',
   'c:\\users\\user\\appdata\\local\\programs\\python\\python37-32\\lib\\xml\\dom\\__init__.py',
   'PYMODULE'),
  ('PyInstaller.utils.win32',
   'c:\\users\\user\\appdata\\local\\programs\\python\\python37-32\\lib\\site-packages\\PyInstaller\\utils\\win32\\__init__.py',
   'PYMODULE'),
  ('PyInstaller.utils.win32.versioninfo',
   'c:\\users\\user\\appdata\\local\\programs\\python\\python37-32\\lib\\site-packages\\PyInstaller\\utils\\win32\\versioninfo.py',
   'PYMODULE'),
  ('pefile',
   'c:\\users\\user\\appdata\\local\\programs\\python\\python37-32\\lib\\site-packages\\pefile.py',
   'PYMODULE'),
  ('ordlookup',
   'c:\\users\\user\\appdata\\local\\programs\\python\\python37-32\\lib\\site-packages\\ordlookup\\__init__.py',
   'PYMODULE'),
  ('ordlookup.oleaut32',
   'c:\\users\\user\\appdata\\local\\programs\\python\\python37-32\\lib\\site-packages\\ordlookup\\oleaut32.py',
   'PYMODULE'),
  ('ordlookup.ws2_32',
   'c:\\users\\user\\appdata\\local\\programs\\python\\python37-32\\lib\\site-packages\\ordlookup\\ws2_32.py',
   'PYMODULE'),
  ('PyInstaller.utils.win32.icon',
   'c:\\users\\user\\appdata\\local\\programs\\python\\python37-32\\lib\\site-packages\\PyInstaller\\utils\\win32\\icon.py',
   'PYMODULE'),
  ('PyInstaller.utils.win32.winutils',
   'c:\\users\\user\\appdata\\local\\programs\\python\\python37-32\\lib\\site-packages\\PyInstaller\\utils\\win32\\winutils.py',
   'PYMODULE'),
  ('site',
   'c:\\users\\user\\appdata\\local\\programs\\python\\python37-32\\lib\\site-packages\\PyInstaller\\fake-modules\\site.py',
   'PYMODULE'),
  ('PyInstaller.utils',
   'c:\\users\\user\\appdata\\local\\programs\\python\\python37-32\\lib\\site-packages\\PyInstaller\\utils\\__init__.py',
   'PYMODULE'),
  ('PyInstaller.configure',
   'c:\\users\\user\\appdata\\local\\programs\\python\\python37-32\\lib\\site-packages\\PyInstaller\\configure.py',
   'PYMODULE'),
  ('PyInstaller.archive.pyz_crypto',
   'c:\\users\\user\\appdata\\local\\programs\\python\\python37-32\\lib\\site-packages\\PyInstaller\\archive\\pyz_crypto.py',
   'PYMODULE'),
  ('PyInstaller.archive',
   'c:\\users\\user\\appdata\\local\\programs\\python\\python37-32\\lib\\site-packages\\PyInstaller\\archive\\__init__.py',
   'PYMODULE'),
  ('PyInstaller.depend.utils',
   'c:\\users\\user\\appdata\\local\\programs\\python\\python37-32\\lib\\site-packages\\PyInstaller\\depend\\utils.py',
   'PYMODULE'),
  ('distutils.spawn',
   'c:\\users\\user\\appdata\\local\\programs\\python\\python37-32\\lib\\distutils\\spawn.py',
   'PYMODULE'),
  ('distutils.sysconfig',
   'c:\\users\\user\\appdata\\local\\programs\\python\\python37-32\\lib\\distutils\\sysconfig.py',
   'PYMODULE'),
  ('distutils.text_file',
   'c:\\users\\user\\appdata\\local\\programs\\python\\python37-32\\lib\\distutils\\text_file.py',
   'PYMODULE'),
  ('_osx_support',
   'c:\\users\\user\\appdata\\local\\programs\\python\\python37-32\\lib\\_osx_support.py',
   'PYMODULE'),
  ('distutils.log',
   'c:\\users\\user\\appdata\\local\\programs\\python\\python37-32\\lib\\distutils\\log.py',
   'PYMODULE'),
  ('distutils',
   'c:\\users\\user\\appdata\\local\\programs\\python\\python37-32\\lib\\distutils\\__init__.py',
   'PYMODULE'),
  ('distutils.debug',
   'c:\\users\\user\\appdata\\local\\programs\\python\\python37-32\\lib\\distutils\\debug.py',
   'PYMODULE'),
  ('distutils.errors',
   'c:\\users\\user\\appdata\\local\\programs\\python\\python37-32\\lib\\distutils\\errors.py',
   'PYMODULE'),
  ('PyInstaller.depend.dylib',
   'c:\\users\\user\\appdata\\local\\programs\\python\\python37-32\\lib\\site-packages\\PyInstaller\\depend\\dylib.py',
   'PYMODULE'),
  ('PyInstaller.lib.modulegraph.modulegraph',
   'c:\\users\\user\\appdata\\local\\programs\\python\\python37-32\\lib\\site-packages\\PyInstaller\\lib\\modulegraph\\modulegraph.py',
   'PYMODULE'),
  ('PyInstaller.lib.modulegraph._compat',
   'c:\\users\\user\\appdata\\local\\programs\\python\\python37-32\\lib\\site-packages\\PyInstaller\\lib\\modulegraph\\_compat.py',
   'PYMODULE'),
  ('PyInstaller.lib.modulegraph.zipio',
   'c:\\users\\user\\appdata\\local\\programs\\python\\python37-32\\lib\\site-packages\\PyInstaller\\lib\\modulegraph\\zipio.py',
   'PYMODULE'),
  ('altgraph',
   'c:\\users\\user\\appdata\\local\\programs\\python\\python37-32\\lib\\site-packages\\altgraph\\__init__.py',
   'PYMODULE'),
  ('altgraph.ObjectGraph',
   'c:\\users\\user\\appdata\\local\\programs\\python\\python37-32\\lib\\site-packages\\altgraph\\ObjectGraph.py',
   'PYMODULE'),
  ('altgraph.GraphUtil',
   'c:\\users\\user\\appdata\\local\\programs\\python\\python37-32\\lib\\site-packages\\altgraph\\GraphUtil.py',
   'PYMODULE'),
  ('altgraph.Graph',
   'c:\\users\\user\\appdata\\local\\programs\\python\\python37-32\\lib\\site-packages\\altgraph\\Graph.py',
   'PYMODULE'),
  ('PyInstaller.lib.modulegraph.util',
   'c:\\users\\user\\appdata\\local\\programs\\python\\python37-32\\lib\\site-packages\\PyInstaller\\lib\\modulegraph\\util.py',
   'PYMODULE'),
  ('PyInstaller.lib.modulegraph',
   'c:\\users\\user\\appdata\\local\\programs\\python\\python37-32\\lib\\site-packages\\PyInstaller\\lib\\modulegraph\\__init__.py',
   'PYMODULE'),
  ('PyInstaller.lib',
   'c:\\users\\user\\appdata\\local\\programs\\python\\python37-32\\lib\\site-packages\\PyInstaller\\lib\\__init__.py',
   'PYMODULE'),
  ('PyInstaller.building.utils',
   'c:\\users\\user\\appdata\\local\\programs\\python\\python37-32\\lib\\site-packages\\PyInstaller\\building\\utils.py',
   'PYMODULE'),
  ('PyInstaller.building.toc_conversion',
   'c:\\users\\user\\appdata\\local\\programs\\python\\python37-32\\lib\\site-packages\\PyInstaller\\building\\toc_conversion.py',
   'PYMODULE'),
  ('PyInstaller.building.osx',
   'c:\\users\\user\\appdata\\local\\programs\\python\\python37-32\\lib\\site-packages\\PyInstaller\\building\\osx.py',
   'PYMODULE'),
  ('PyInstaller.building.imphook',
   'c:\\users\\user\\appdata\\local\\programs\\python\\python37-32\\lib\\site-packages\\PyInstaller\\building\\imphook.py',
   'PYMODULE'),
  ('PyInstaller.building.imphookapi',
   'c:\\users\\user\\appdata\\local\\programs\\python\\python37-32\\lib\\site-packages\\PyInstaller\\building\\imphookapi.py',
   'PYMODULE'),
  ('PyInstaller.building.datastruct',
   'c:\\users\\user\\appdata\\local\\programs\\python\\python37-32\\lib\\site-packages\\PyInstaller\\building\\datastruct.py',
   'PYMODULE'),
  ('PyInstaller.building.api',
   'c:\\users\\user\\appdata\\local\\programs\\python\\python37-32\\lib\\site-packages\\PyInstaller\\building\\api.py',
   'PYMODULE'),
  ('PyInstaller.utils.osx',
   'c:\\users\\user\\appdata\\local\\programs\\python\\python37-32\\lib\\site-packages\\PyInstaller\\utils\\osx.py',
   'PYMODULE'),
  ('PyInstaller.archive.writers',
   'c:\\users\\user\\appdata\\local\\programs\\python\\python37-32\\lib\\site-packages\\PyInstaller\\archive\\writers.py',
   'PYMODULE'),
  ('PyInstaller.loader.pyimod02_archive',
   'c:\\users\\user\\appdata\\local\\programs\\python\\python37-32\\lib\\site-packages\\PyInstaller\\loader\\pyimod02_archive.py',
   'PYMODULE'),
  ('PyInstaller.loader',
   'c:\\users\\user\\appdata\\local\\programs\\python\\python37-32\\lib\\site-packages\\PyInstaller\\loader\\__init__.py',
   'PYMODULE'),
  ('PyInstaller.depend.analysis',
   'c:\\users\\user\\appdata\\local\\programs\\python\\python37-32\\lib\\site-packages\\PyInstaller\\depend\\analysis.py',
   'PYMODULE'),
  ('PyInstaller.utils.hooks',
   'c:\\users\\user\\appdata\\local\\programs\\python\\python37-32\\lib\\site-packages\\PyInstaller\\utils\\hooks\\__init__.py',
   'PYMODULE'),
  ('PyInstaller.utils.hooks.win32',
   'c:\\users\\user\\appdata\\local\\programs\\python\\python37-32\\lib\\site-packages\\PyInstaller\\utils\\hooks\\win32.py',
   'PYMODULE'),
  ('PyInstaller.utils.hooks.qt',
   'c:\\users\\user\\appdata\\local\\programs\\python\\python37-32\\lib\\site-packages\\PyInstaller\\utils\\hooks\\qt.py',
   'PYMODULE'),
  ('json',
   'c:\\users\\user\\appdata\\local\\programs\\python\\python37-32\\lib\\json\\__init__.py',
   'PYMODULE'),
  ('json.encoder',
   'c:\\users\\user\\appdata\\local\\programs\\python\\python37-32\\lib\\json\\encoder.py',
   'PYMODULE'),
  ('json.decoder',
   'c:\\users\\user\\appdata\\local\\programs\\python\\python37-32\\lib\\json\\decoder.py',
   'PYMODULE'),
  ('json.scanner',
   'c:\\users\\user\\appdata\\local\\programs\\python\\python37-32\\lib\\json\\scanner.py',
   'PYMODULE'),
  ('PyInstaller.utils.hooks.gi',
   'c:\\users\\user\\appdata\\local\\programs\\python\\python37-32\\lib\\site-packages\\PyInstaller\\utils\\hooks\\gi.py',
   'PYMODULE'),
  ('PyInstaller.utils.hooks.django',
   'c:\\users\\user\\appdata\\local\\programs\\python\\python37-32\\lib\\site-packages\\PyInstaller\\utils\\hooks\\django.py',
   'PYMODULE'),
  ('PyInstaller.exceptions',
   'c:\\users\\user\\appdata\\local\\programs\\python\\python37-32\\lib\\site-packages\\PyInstaller\\exceptions.py',
   'PYMODULE'),
  ('PyInstaller.lib.modulegraph.find_modules',
   'c:\\users\\user\\appdata\\local\\programs\\python\\python37-32\\lib\\site-packages\\PyInstaller\\lib\\modulegraph\\find_modules.py',
   'PYMODULE'),
  ('xml.etree',
   'c:\\users\\user\\appdata\\local\\programs\\python\\python37-32\\lib\\xml\\etree\\__init__.py',
   'PYMODULE'),
  ('xml.etree.ElementTree',
   'c:\\users\\user\\appdata\\local\\programs\\python\\python37-32\\lib\\xml\\etree\\ElementTree.py',
   'PYMODULE'),
  ('xml.etree.cElementTree',
   'c:\\users\\user\\appdata\\local\\programs\\python\\python37-32\\lib\\xml\\etree\\cElementTree.py',
   'PYMODULE'),
  ('xml.etree.ElementInclude',
   'c:\\users\\user\\appdata\\local\\programs\\python\\python37-32\\lib\\xml\\etree\\ElementInclude.py',
   'PYMODULE'),
  ('xml.etree.ElementPath',
   'c:\\users\\user\\appdata\\local\\programs\\python\\python37-32\\lib\\xml\\etree\\ElementPath.py',
   'PYMODULE'),
  ('PyInstaller.depend.bindepend',
   'c:\\users\\user\\appdata\\local\\programs\\python\\python37-32\\lib\\site-packages\\PyInstaller\\depend\\bindepend.py',
   'PYMODULE'),
  ('PyInstaller.depend',
   'c:\\users\\user\\appdata\\local\\programs\\python\\python37-32\\lib\\site-packages\\PyInstaller\\depend\\__init__.py',
   'PYMODULE'),
  ('PyInstaller.utils.misc',
   'c:\\users\\user\\appdata\\local\\programs\\python\\python37-32\\lib\\site-packages\\PyInstaller\\utils\\misc.py',
   'PYMODULE'),
  ('PyInstaller.building.makespec',
   'c:\\users\\user\\appdata\\local\\programs\\python\\python37-32\\lib\\site-packages\\PyInstaller\\building\\makespec.py',
   'PYMODULE'),
  ('PyInstaller.building.templates',
   'c:\\users\\user\\appdata\\local\\programs\\python\\python37-32\\lib\\site-packages\\PyInstaller\\building\\templates.py',
   'PYMODULE'),
  ('distutils.version',
   'c:\\users\\user\\appdata\\local\\programs\\python\\python37-32\\lib\\distutils\\version.py',
   'PYMODULE'),
  ('PyInstaller.compat',
   'c:\\users\\user\\appdata\\local\\programs\\python\\python37-32\\lib\\site-packages\\PyInstaller\\compat.py',
   'PYMODULE'),
  ('win32ctypes.pywin32.win32api',
   'c:\\users\\user\\appdata\\local\\programs\\python\\python37-32\\lib\\site-packages\\win32ctypes\\pywin32\\win32api.py',
   'PYMODULE'),
  ('win32ctypes.core',
   'c:\\users\\user\\appdata\\local\\programs\\python\\python37-32\\lib\\site-packages\\win32ctypes\\core\\__init__.py',
   'PYMODULE'),
  ('win32ctypes',
   'c:\\users\\user\\appdata\\local\\programs\\python\\python37-32\\lib\\site-packages\\win32ctypes\\__init__.py',
   'PYMODULE'),
  ('win32ctypes.version',
   'c:\\users\\user\\appdata\\local\\programs\\python\\python37-32\\lib\\site-packages\\win32ctypes\\version.py',
   'PYMODULE'),
  ('win32ctypes.core._winerrors',
   'c:\\users\\user\\appdata\\local\\programs\\python\\python37-32\\lib\\site-packages\\win32ctypes\\core\\_winerrors.py',
   'PYMODULE'),
  ('win32ctypes.pywin32.pywintypes',
   'c:\\users\\user\\appdata\\local\\programs\\python\\python37-32\\lib\\site-packages\\win32ctypes\\pywin32\\pywintypes.py',
   'PYMODULE'),
  ('win32ctypes.pywin32',
   'c:\\users\\user\\appdata\\local\\programs\\python\\python37-32\\lib\\site-packages\\win32ctypes\\pywin32\\__init__.py',
   'PYMODULE'),
  ('win32ctypes.pywin32.win32cred',
   'c:\\users\\user\\appdata\\local\\programs\\python\\python37-32\\lib\\site-packages\\win32ctypes\\pywin32\\win32cred.py',
   'PYMODULE'),
  ('PyInstaller.log',
   'c:\\users\\user\\appdata\\local\\programs\\python\\python37-32\\lib\\site-packages\\PyInstaller\\log.py',
   'PYMODULE'),
  ('PyInstaller',
   'c:\\users\\user\\appdata\\local\\programs\\python\\python37-32\\lib\\site-packages\\PyInstaller\\__init__.py',
   'PYMODULE'),
  ('PyInstaller.utils.git',
   'c:\\users\\user\\appdata\\local\\programs\\python\\python37-32\\lib\\site-packages\\PyInstaller\\utils\\git.py',
   'PYMODULE'),
  ('PyInstaller.utils._gitrevision',
   'c:\\users\\user\\appdata\\local\\programs\\python\\python37-32\\lib\\site-packages\\PyInstaller\\utils\\_gitrevision.py',
   'PYMODULE'),
  ('sysconfig',
   'c:\\users\\user\\appdata\\local\\programs\\python\\python37-32\\lib\\sysconfig.py',
   'PYMODULE'),
  ('pkg_resources.py31compat',
   'c:\\users\\user\\appdata\\local\\programs\\python\\python37-32\\lib\\site-packages\\pkg_resources\\py31compat.py',
   'PYMODULE'),
  ('pkg_resources.extern',
   'c:\\users\\user\\appdata\\local\\programs\\python\\python37-32\\lib\\site-packages\\pkg_resources\\extern\\__init__.py',
   'PYMODULE'),
  ('imp',
   'c:\\users\\user\\appdata\\local\\programs\\python\\python37-32\\lib\\imp.py',
   'PYMODULE'),
  ('ntpath',
   'c:\\users\\user\\appdata\\local\\programs\\python\\python37-32\\lib\\ntpath.py',
   'PYMODULE'),
  ('_strptime',
   'c:\\users\\user\\appdata\\local\\programs\\python\\python37-32\\lib\\_strptime.py',
   'PYMODULE'),
  ('datetime',
   'c:\\users\\user\\appdata\\local\\programs\\python\\python37-32\\lib\\datetime.py',
   'PYMODULE'),
  ('stringprep',
   'c:\\users\\user\\appdata\\local\\programs\\python\\python37-32\\lib\\stringprep.py',
   'PYMODULE'),
  ('typing',
   'c:\\users\\user\\appdata\\local\\programs\\python\\python37-32\\lib\\typing.py',
   'PYMODULE'),
  ('fnmatch',
   'c:\\users\\user\\appdata\\local\\programs\\python\\python37-32\\lib\\fnmatch.py',
   'PYMODULE'),
  ('struct',
   'c:\\users\\user\\appdata\\local\\programs\\python\\python37-32\\lib\\struct.py',
   'PYMODULE'),
  ('_compat_pickle',
   'c:\\users\\user\\appdata\\local\\programs\\python\\python37-32\\lib\\_compat_pickle.py',
   'PYMODULE'),
  ('__future__',
   'c:\\users\\user\\appdata\\local\\programs\\python\\python37-32\\lib\\__future__.py',
   'PYMODULE'),
  ('difflib',
   'c:\\users\\user\\appdata\\local\\programs\\python\\python37-32\\lib\\difflib.py',
   'PYMODULE'),
  ('ast',
   'c:\\users\\user\\appdata\\local\\programs\\python\\python37-32\\lib\\ast.py',
   'PYMODULE'),
  ('inspect',
   'c:\\users\\user\\appdata\\local\\programs\\python\\python37-32\\lib\\inspect.py',
   'PYMODULE'),
  ('cmd',
   'c:\\users\\user\\appdata\\local\\programs\\python\\python37-32\\lib\\cmd.py',
   'PYMODULE'),
  ('bdb',
   'c:\\users\\user\\appdata\\local\\programs\\python\\python37-32\\lib\\bdb.py',
   'PYMODULE'),
  ('opcode',
   'c:\\users\\user\\appdata\\local\\programs\\python\\python37-32\\lib\\opcode.py',
   'PYMODULE'),
  ('dis',
   'c:\\users\\user\\appdata\\local\\programs\\python\\python37-32\\lib\\dis.py',
   'PYMODULE'),
  ('codeop',
   'c:\\users\\user\\appdata\\local\\programs\\python\\python37-32\\lib\\codeop.py',
   'PYMODULE'),
  ('code',
   'c:\\users\\user\\appdata\\local\\programs\\python\\python37-32\\lib\\code.py',
   'PYMODULE'),
  ('glob',
   'c:\\users\\user\\appdata\\local\\programs\\python\\python37-32\\lib\\glob.py',
   'PYMODULE'),
  ('shlex',
   'c:\\users\\user\\appdata\\local\\programs\\python\\python37-32\\lib\\shlex.py',
   'PYMODULE'),
  ('runpy',
   'c:\\users\\user\\appdata\\local\\programs\\python\\python37-32\\lib\\runpy.py',
   'PYMODULE'),
  ('importlib._bootstrap',
   'c:\\users\\user\\appdata\\local\\programs\\python\\python37-32\\lib\\importlib\\_bootstrap.py',
   'PYMODULE'),
  ('importlib._bootstrap_external',
   'c:\\users\\user\\appdata\\local\\programs\\python\\python37-32\\lib\\importlib\\_bootstrap_external.py',
   'PYMODULE'),
  ('importlib.machinery',
   'c:\\users\\user\\appdata\\local\\programs\\python\\python37-32\\lib\\importlib\\machinery.py',
   'PYMODULE'),
  ('importlib.util',
   'c:\\users\\user\\appdata\\local\\programs\\python\\python37-32\\lib\\importlib\\util.py',
   'PYMODULE'),
  ('importlib.abc',
   'c:\\users\\user\\appdata\\local\\programs\\python\\python37-32\\lib\\importlib\\abc.py',
   'PYMODULE'),
  ('importlib',
   'c:\\users\\user\\appdata\\local\\programs\\python\\python37-32\\lib\\importlib\\__init__.py',
   'PYMODULE'),
  ('pkgutil',
   'c:\\users\\user\\appdata\\local\\programs\\python\\python37-32\\lib\\pkgutil.py',
   'PYMODULE'),
  ('xml',
   'c:\\users\\user\\appdata\\local\\programs\\python\\python37-32\\lib\\xml\\__init__.py',
   'PYMODULE'),
  ('xml.parsers',
   'c:\\users\\user\\appdata\\local\\programs\\python\\python37-32\\lib\\xml\\parsers\\__init__.py',
   'PYMODULE'),
  ('xml.parsers.expat',
   'c:\\users\\user\\appdata\\local\\programs\\python\\python37-32\\lib\\xml\\parsers\\expat.py',
   'PYMODULE'),
  ('plistlib',
   'c:\\users\\user\\appdata\\local\\programs\\python\\python37-32\\lib\\plistlib.py',
   'PYMODULE'),
  ('platform',
   'c:\\users\\user\\appdata\\local\\programs\\python\\python37-32\\lib\\platform.py',
   'PYMODULE'),
  ('token',
   'c:\\users\\user\\appdata\\local\\programs\\python\\python37-32\\lib\\token.py',
   'PYMODULE'),
  ('tokenize',
   'c:\\users\\user\\appdata\\local\\programs\\python\\python37-32\\lib\\tokenize.py',
   'PYMODULE'),
  ('urllib.parse',
   'c:\\users\\user\\appdata\\local\\programs\\python\\python37-32\\lib\\urllib\\parse.py',
   'PYMODULE'),
  ('tempfile',
   'c:\\users\\user\\appdata\\local\\programs\\python\\python37-32\\lib\\tempfile.py',
   'PYMODULE'),
  ('tty',
   'c:\\users\\user\\appdata\\local\\programs\\python\\python37-32\\lib\\tty.py',
   'PYMODULE'),
  ('pydoc_data',
   'c:\\users\\user\\appdata\\local\\programs\\python\\python37-32\\lib\\pydoc_data\\__init__.py',
   'PYMODULE'),
  ('pydoc_data.topics',
   'c:\\users\\user\\appdata\\local\\programs\\python\\python37-32\\lib\\pydoc_data\\topics.py',
   'PYMODULE'),
  ('html.entities',
   'c:\\users\\user\\appdata\\local\\programs\\python\\python37-32\\lib\\html\\entities.py',
   'PYMODULE'),
  ('html',
   'c:\\users\\user\\appdata\\local\\programs\\python\\python37-32\\lib\\html\\__init__.py',
   'PYMODULE'),
  ('ssl',
   'c:\\users\\user\\appdata\\local\\programs\\python\\python37-32\\lib\\ssl.py',
   'PYMODULE'),
  ('http.client',
   'c:\\users\\user\\appdata\\local\\programs\\python\\python37-32\\lib\\http\\client.py',
   'PYMODULE'),
  ('mimetypes',
   'c:\\users\\user\\appdata\\local\\programs\\python\\python37-32\\lib\\mimetypes.py',
   'PYMODULE'),
  ('socketserver',
   'c:\\users\\user\\appdata\\local\\programs\\python\\python37-32\\lib\\socketserver.py',
   'PYMODULE'),
  ('http',
   'c:\\users\\user\\appdata\\local\\programs\\python\\python37-32\\lib\\http\\__init__.py',
   'PYMODULE'),
  ('http.server',
   'c:\\users\\user\\appdata\\local\\programs\\python\\python37-32\\lib\\http\\server.py',
   'PYMODULE'),
  ('optparse',
   'c:\\users\\user\\appdata\\local\\programs\\python\\python37-32\\lib\\optparse.py',
   'PYMODULE'),
  ('uu',
   'c:\\users\\user\\appdata\\local\\programs\\python\\python37-32\\lib\\uu.py',
   'PYMODULE'),
  ('quopri',
   'c:\\users\\user\\appdata\\local\\programs\\python\\python37-32\\lib\\quopri.py',
   'PYMODULE'),
  ('email.feedparser',
   'c:\\users\\user\\appdata\\local\\programs\\python\\python37-32\\lib\\email\\feedparser.py',
   'PYMODULE'),
  ('email.parser',
   'c:\\users\\user\\appdata\\local\\programs\\python\\python37-32\\lib\\email\\parser.py',
   'PYMODULE'),
  ('email',
   'c:\\users\\user\\appdata\\local\\programs\\python\\python37-32\\lib\\email\\__init__.py',
   'PYMODULE'),
  ('calendar',
   'c:\\users\\user\\appdata\\local\\programs\\python\\python37-32\\lib\\calendar.py',
   'PYMODULE'),
  ('email._parseaddr',
   'c:\\users\\user\\appdata\\local\\programs\\python\\python37-32\\lib\\email\\_parseaddr.py',
   'PYMODULE'),
  ('email.utils',
   'c:\\users\\user\\appdata\\local\\programs\\python\\python37-32\\lib\\email\\utils.py',
   'PYMODULE'),
  ('email.errors',
   'c:\\users\\user\\appdata\\local\\programs\\python\\python37-32\\lib\\email\\errors.py',
   'PYMODULE'),
  ('email.header',
   'c:\\users\\user\\appdata\\local\\programs\\python\\python37-32\\lib\\email\\header.py',
   'PYMODULE'),
  ('email._policybase',
   'c:\\users\\user\\appdata\\local\\programs\\python\\python37-32\\lib\\email\\_policybase.py',
   'PYMODULE'),
  ('email.base64mime',
   'c:\\users\\user\\appdata\\local\\programs\\python\\python37-32\\lib\\email\\base64mime.py',
   'PYMODULE'),
  ('email.encoders',
   'c:\\users\\user\\appdata\\local\\programs\\python\\python37-32\\lib\\email\\encoders.py',
   'PYMODULE'),
  ('email.charset',
   'c:\\users\\user\\appdata\\local\\programs\\python\\python37-32\\lib\\email\\charset.py',
   'PYMODULE'),
  ('base64',
   'c:\\users\\user\\appdata\\local\\programs\\python\\python37-32\\lib\\base64.py',
   'PYMODULE'),
  ('email._encoded_words',
   'c:\\users\\user\\appdata\\local\\programs\\python\\python37-32\\lib\\email\\_encoded_words.py',
   'PYMODULE'),
  ('hashlib',
   'c:\\users\\user\\appdata\\local\\programs\\python\\python37-32\\lib\\hashlib.py',
   'PYMODULE'),
  ('bisect',
   'c:\\users\\user\\appdata\\local\\programs\\python\\python37-32\\lib\\bisect.py',
   'PYMODULE'),
  ('email.generator',
   'c:\\users\\user\\appdata\\local\\programs\\python\\python37-32\\lib\\email\\generator.py',
   'PYMODULE'),
  ('email.iterators',
   'c:\\users\\user\\appdata\\local\\programs\\python\\python37-32\\lib\\email\\iterators.py',
   'PYMODULE'),
  ('urllib',
   'c:\\users\\user\\appdata\\local\\programs\\python\\python37-32\\lib\\urllib\\__init__.py',
   'PYMODULE'),
  ('email._header_value_parser',
   'c:\\users\\user\\appdata\\local\\programs\\python\\python37-32\\lib\\email\\_header_value_parser.py',
   'PYMODULE'),
  ('email.headerregistry',
   'c:\\users\\user\\appdata\\local\\programs\\python\\python37-32\\lib\\email\\headerregistry.py',
   'PYMODULE'),
  ('email.quoprimime',
   'c:\\users\\user\\appdata\\local\\programs\\python\\python37-32\\lib\\email\\quoprimime.py',
   'PYMODULE'),
  ('email.contentmanager',
   'c:\\users\\user\\appdata\\local\\programs\\python\\python37-32\\lib\\email\\contentmanager.py',
   'PYMODULE'),
  ('email.policy',
   'c:\\users\\user\\appdata\\local\\programs\\python\\python37-32\\lib\\email\\policy.py',
   'PYMODULE'),
  ('email.message',
   'c:\\users\\user\\appdata\\local\\programs\\python\\python37-32\\lib\\email\\message.py',
   'PYMODULE'),
  ('bz2',
   'c:\\users\\user\\appdata\\local\\programs\\python\\python37-32\\lib\\bz2.py',
   'PYMODULE'),
  ('lzma',
   'c:\\users\\user\\appdata\\local\\programs\\python\\python37-32\\lib\\lzma.py',
   'PYMODULE'),
  ('_compression',
   'c:\\users\\user\\appdata\\local\\programs\\python\\python37-32\\lib\\_compression.py',
   'PYMODULE'),
  ('gzip',
   'c:\\users\\user\\appdata\\local\\programs\\python\\python37-32\\lib\\gzip.py',
   'PYMODULE'),
  ('tarfile',
   'c:\\users\\user\\appdata\\local\\programs\\python\\python37-32\\lib\\tarfile.py',
   'PYMODULE'),
  ('py_compile',
   'c:\\users\\user\\appdata\\local\\programs\\python\\python37-32\\lib\\py_compile.py',
   'PYMODULE'),
  ('zipfile',
   'c:\\users\\user\\appdata\\local\\programs\\python\\python37-32\\lib\\zipfile.py',
   'PYMODULE'),
  ('shutil',
   'c:\\users\\user\\appdata\\local\\programs\\python\\python37-32\\lib\\shutil.py',
   'PYMODULE'),
  ('socket',
   'c:\\users\\user\\appdata\\local\\programs\\python\\python37-32\\lib\\socket.py',
   'PYMODULE'),
  ('webbrowser',
   'c:\\users\\user\\appdata\\local\\programs\\python\\python37-32\\lib\\webbrowser.py',
   'PYMODULE'),
  ('pydoc',
   'c:\\users\\user\\appdata\\local\\programs\\python\\python37-32\\lib\\pydoc.py',
   'PYMODULE'),
  ('getopt',
   'c:\\users\\user\\appdata\\local\\programs\\python\\python37-32\\lib\\getopt.py',
   'PYMODULE'),
  ('pdb',
   'c:\\users\\user\\appdata\\local\\programs\\python\\python37-32\\lib\\pdb.py',
   'PYMODULE'),
  ('unittest.util',
   'c:\\users\\user\\appdata\\local\\programs\\python\\python37-32\\lib\\unittest\\util.py',
   'PYMODULE'),
  ('unittest.result',
   'c:\\users\\user\\appdata\\local\\programs\\python\\python37-32\\lib\\unittest\\result.py',
   'PYMODULE'),
  ('string',
   'c:\\users\\user\\appdata\\local\\programs\\python\\python37-32\\lib\\string.py',
   'PYMODULE'),
  ('logging',
   'c:\\users\\user\\appdata\\local\\programs\\python\\python37-32\\lib\\logging\\__init__.py',
   'PYMODULE'),
  ('unittest.case',
   'c:\\users\\user\\appdata\\local\\programs\\python\\python37-32\\lib\\unittest\\case.py',
   'PYMODULE'),
  ('unittest.suite',
   'c:\\users\\user\\appdata\\local\\programs\\python\\python37-32\\lib\\unittest\\suite.py',
   'PYMODULE'),
  ('unittest.loader',
   'c:\\users\\user\\appdata\\local\\programs\\python\\python37-32\\lib\\unittest\\loader.py',
   'PYMODULE'),
  ('unittest.runner',
   'c:\\users\\user\\appdata\\local\\programs\\python\\python37-32\\lib\\unittest\\runner.py',
   'PYMODULE'),
  ('unittest.main',
   'c:\\users\\user\\appdata\\local\\programs\\python\\python37-32\\lib\\unittest\\main.py',
   'PYMODULE'),
  ('unittest.signals',
   'c:\\users\\user\\appdata\\local\\programs\\python\\python37-32\\lib\\unittest\\signals.py',
   'PYMODULE'),
  ('unittest',
   'c:\\users\\user\\appdata\\local\\programs\\python\\python37-32\\lib\\unittest\\__init__.py',
   'PYMODULE'),
  ('doctest',
   'c:\\users\\user\\appdata\\local\\programs\\python\\python37-32\\lib\\doctest.py',
   'PYMODULE'),
  ('stat',
   'c:\\users\\user\\appdata\\local\\programs\\python\\python37-32\\lib\\stat.py',
   'PYMODULE'),
  ('genericpath',
   'c:\\users\\user\\appdata\\local\\programs\\python\\python37-32\\lib\\genericpath.py',
   'PYMODULE'),
  ('posixpath',
   'c:\\users\\user\\appdata\\local\\programs\\python\\python37-32\\lib\\posixpath.py',
   'PYMODULE'),
  ('signal',
   'c:\\users\\user\\appdata\\local\\programs\\python\\python37-32\\lib\\signal.py',
   'PYMODULE'),
  ('contextlib',
   'c:\\users\\user\\appdata\\local\\programs\\python\\python37-32\\lib\\contextlib.py',
   'PYMODULE'),
  ('_threading_local',
   'c:\\users\\user\\appdata\\local\\programs\\python\\python37-32\\lib\\_threading_local.py',
   'PYMODULE'),
  ('threading',
   'c:\\users\\user\\appdata\\local\\programs\\python\\python37-32\\lib\\threading.py',
   'PYMODULE'),
  ('selectors',
   'c:\\users\\user\\appdata\\local\\programs\\python\\python37-32\\lib\\selectors.py',
   'PYMODULE'),
  ('subprocess',
   'c:\\users\\user\\appdata\\local\\programs\\python\\python37-32\\lib\\subprocess.py',
   'PYMODULE'),
  ('os',
   'c:\\users\\user\\appdata\\local\\programs\\python\\python37-32\\lib\\os.py',
   'PYMODULE'),
  ('gettext',
   'c:\\users\\user\\appdata\\local\\programs\\python\\python37-32\\lib\\gettext.py',
   'PYMODULE'),
  ('textwrap',
   'c:\\users\\user\\appdata\\local\\programs\\python\\python37-32\\lib\\textwrap.py',
   'PYMODULE'),
  ('argparse',
   'c:\\users\\user\\appdata\\local\\programs\\python\\python37-32\\lib\\argparse.py',
   'PYMODULE'),
  ('pprint',
   'c:\\users\\user\\appdata\\local\\programs\\python\\python37-32\\lib\\pprint.py',
   'PYMODULE'),
  ('pickle',
   'c:\\users\\user\\appdata\\local\\programs\\python\\python37-32\\lib\\pickle.py',
   'PYMODULE'),
  ('tracemalloc',
   'c:\\users\\user\\appdata\\local\\programs\\python\\python37-32\\lib\\tracemalloc.py',
   'PYMODULE'),
  ('_py_abc',
   'c:\\users\\user\\appdata\\local\\programs\\python\\python37-32\\lib\\_py_abc.py',
   'PYMODULE'),
  ('copy',
   'c:\\users\\user\\appdata\\local\\programs\\python\\python37-32\\lib\\copy.py',
   'PYMODULE'),
  ('tkinter.messagebox',
   'c:\\users\\user\\appdata\\local\\programs\\python\\python37-32\\lib\\tkinter\\messagebox.py',
   'PYMODULE'),
  ('tkinter.commondialog',
   'c:\\users\\user\\appdata\\local\\programs\\python\\python37-32\\lib\\tkinter\\commondialog.py',
   'PYMODULE'),
  ('tkinter',
   'c:\\users\\user\\appdata\\local\\programs\\python\\python37-32\\lib\\tkinter\\__init__.py',
   'PYMODULE'),
  ('tkinter.constants',
   'c:\\users\\user\\appdata\\local\\programs\\python\\python37-32\\lib\\tkinter\\constants.py',
   'PYMODULE'),
  ('random',
   'c:\\users\\user\\appdata\\local\\programs\\python\\python37-32\\lib\\random.py',
   'PYMODULE'),
  ('pygame',
   'c:\\users\\user\\appdata\\local\\programs\\python\\python37-32\\lib\\site-packages\\pygame\\__init__.py',
   'PYMODULE'),
  ('pygame.colordict',
   'c:\\users\\user\\appdata\\local\\programs\\python\\python37-32\\lib\\site-packages\\pygame\\colordict.py',
   'PYMODULE'),
  ('pygame.macosx',
   'c:\\users\\user\\appdata\\local\\programs\\python\\python37-32\\lib\\site-packages\\pygame\\macosx.py',
   'PYMODULE'),
  ('pygame.pkgdata',
   'c:\\users\\user\\appdata\\local\\programs\\python\\python37-32\\lib\\site-packages\\pygame\\pkgdata.py',
   'PYMODULE'),
  ('pygame.sndarray',
   'c:\\users\\user\\appdata\\local\\programs\\python\\python37-32\\lib\\site-packages\\pygame\\sndarray.py',
   'PYMODULE'),
  ('pygame._numpysndarray',
   'c:\\users\\user\\appdata\\local\\programs\\python\\python37-32\\lib\\site-packages\\pygame\\_numpysndarray.py',
   'PYMODULE'),
  ('pygame.surfarray',
   'c:\\users\\user\\appdata\\local\\programs\\python\\python37-32\\lib\\site-packages\\pygame\\surfarray.py',
   'PYMODULE'),
  ('pygame._numpysurfarray',
   'c:\\users\\user\\appdata\\local\\programs\\python\\python37-32\\lib\\site-packages\\pygame\\_numpysurfarray.py',
   'PYMODULE'),
  ('pygame.sysfont',
   'c:\\users\\user\\appdata\\local\\programs\\python\\python37-32\\lib\\site-packages\\pygame\\sysfont.py',
   'PYMODULE'),
  ('pygame.ftfont',
   'c:\\users\\user\\appdata\\local\\programs\\python\\python37-32\\lib\\site-packages\\pygame\\ftfont.py',
   'PYMODULE'),
  ('pygame.threads',
   'c:\\users\\user\\appdata\\local\\programs\\python\\python37-32\\lib\\site-packages\\pygame\\threads\\__init__.py',
   'PYMODULE'),
  ('queue',
   'c:\\users\\user\\appdata\\local\\programs\\python\\python37-32\\lib\\queue.py',
   'PYMODULE'),
  ('pygame.sprite',
   'c:\\users\\user\\appdata\\local\\programs\\python\\python37-32\\lib\\site-packages\\pygame\\sprite.py',
   'PYMODULE'),
  ('pygame.cursors',
   'c:\\users\\user\\appdata\\local\\programs\\python\\python37-32\\lib\\site-packages\\pygame\\cursors.py',
   'PYMODULE'),
  ('pygame.compat',
   'c:\\users\\user\\appdata\\local\\programs\\python\\python37-32\\lib\\site-packages\\pygame\\compat.py',
   'PYMODULE'),
  ('pygame.version',
   'c:\\users\\user\\appdata\\local\\programs\\python\\python37-32\\lib\\site-packages\\pygame\\version.py',
   'PYMODULE')])
